undefined{"_metadata":{"collection":"people","offset":0,"limit":10,"total":15927,"next":"eyJzaW5jZUlkIjozMDk3MX0","nextLink":"https://api.followupboss.com/v1/people?next=eyJzaW5jZUlkIjozMDk3MX0","notice":"X-System not set, please see https://docs.followupboss.com/reference#identification to register your system. Registered systems are allowed more requests per second, and you will be notified about important changes to the API which may affect your integration."},"people":[{"id":30980,"created":"2021-02-22T23:57:28Z","updated":"2021-02-22T23:57:29Z","createdVia":"API","lastActivity":"2021-02-22T23:57:30Z","name":"Juan Pablo Vegara","firstName":"Juan Pablo Vegara","lastName":"","stage":"Lead","stageId":2,"source":"Facebook-Lead","sourceUrl":"","delayed":false,"contacted":0,"price":0,"assignedLenderId":null,"assignedLenderName":null,"assignedUserId":1,"assignedPondId":null,"assignedTo":"Coach Jackson","tags":["BasketballMale"],"emails":[{"value":"j.pvergra@gmail.com","type":"home","status":"Valid","isPrimary":1}],"phones":[{"value":"+522222397848","type":"mobile","status":"Valid","isPrimary":1,"normalized":"+522222397848"}],"addresses":[{"type":"","street":"","city":"Promoting Lead Generation: Become a Basketball Playmaker","state":"","code":"","country":""}],"picture":null,"socialData":[],"claimed":true,"firstToClaimOffer":false,"collaborators":[{"id":1,"name":"Coach Jackson","assigned":true,"role":"Broker"}],"teamLeaders":[],"pondMembers":[]},{"id":30979,"created":"2021-02-22T22:59:35Z","updated":"2021-02-22T22:59:36Z","createdVia":"API","lastActivity":"2021-02-22T22:59:37Z","name":"Isaac Zuñiga","firstName":"Isaac Zuñiga","lastName":"","stage":"Lead","stageId":2,"source":"Facebook-Lead","sourceUrl":"","delayed":false,"contacted":0,"price":0,"assignedLenderId":null,"assignedLenderName":null,"assignedUserId":1,"assignedPondId":null,"assignedTo":"Coach Jackson","tags":["BasketballMale"],"emails":[{"value":"zuniga.isaac1@hotmail.com","type":"home","status":"Valid","isPrimary":1}],"phones":[{"value":"+526623077316","type":"mobile","status":"Valid","isPrimary":1,"normalized":"+526623077316"}],"addresses":[{"type":"","street":"","city":"Promoting Lead Generation: Become a Basketball Playmaker","state":"","code":"","country":""}],"picture":null,"socialData":[],"claimed":true,"firstToClaimOffer":false,"collaborators":[{"id":1,"name":"Coach Jackson","assigned":true,"role":"Broker"}],"teamLeaders":[],"pondMembers":[]},{"id":30978,"created":"2021-02-22T22:37:35Z","updated":"2021-02-22T22:37:36Z","createdVia":"API","lastActivity":"2021-02-22T22:37:37Z","name":"Edgardo Barron Alvares","firstName":"Edgardo Barron Alvares","lastName":"","stage":"Lead","stageId":2,"source":"Facebook-Lead","sourceUrl":"","delayed":false,"contacted":0,"price":0,"assignedLenderId":null,"assignedLenderName":null,"assignedUserId":1,"assignedPondId":null,"assignedTo":"Coach Jackson","tags":["BasketballMale"],"emails":[{"value":"barronalvareze@gmail.com","type":"home","status":"Valid","isPrimary":1}],"phones":[{"value":"+51929694705","type":"mobile","status":"Valid","isPrimary":1,"normalized":"+51929694705"}],"addresses":[{"type":"","street":"","city":"Promoting Lead Generation: Become a Basketball Playmaker","state":"","code":"","country":""}],"picture":null,"socialData":[],"claimed":true,"firstToClaimOffer":false,"collaborators":[{"id":1,"name":"Coach Jackson","assigned":true,"role":"Broker"}],"teamLeaders":[],"pondMembers":[]},{"id":30977,"created":"2021-02-22T21:51:14Z","updated":"2021-02-22T21:51:15Z","createdVia":"API","lastActivity":"2021-02-22T21:51:16Z","name":"Andres Pinzon","firstName":"Andres Pinzon","lastName":"","stage":"Lead","stageId":2,"source":"Facebook-Lead","sourceUrl":"","delayed":false,"contacted":0,"price":0,"assignedLenderId":null,"assignedLenderName":null,"assignedUserId":1,"assignedPondId":null,"assignedTo":"Coach Jackson","tags":["BasketballMale"],"emails":[{"value":"pipepinzon0112@hotmail.com","type":"home","status":"Valid","isPrimary":1}],"phones":[{"value":"+573183353856","type":"mobile","status":"Valid","isPrimary":1,"normalized":"+573183353856"}],"addresses":[{"type":"","street":"","city":"Promoting Lead Generation: Become a Basketball Playmaker","state":"","code":"","country":""}],"picture":null,"socialData":[],"claimed":true,"firstToClaimOffer":false,"collaborators":[{"id":1,"name":"Coach Jackson","assigned":true,"role":"Broker"}],"teamLeaders":[],"pondMembers":[]},{"id":30976,"created":"2021-02-22T21:06:28Z","updated":"2021-02-22T21:06:28Z","createdVia":"API","lastActivity":"2021-02-22T21:06:29Z","name":"Sebastian Perico","firstName":"Sebastian Perico","lastName":"","stage":"Lead","stageId":2,"source":"Facebook-Lead","sourceUrl":"","delayed":false,"contacted":0,"price":0,"assignedLenderId":null,"assignedLenderName":null,"assignedUserId":1,"assignedPondId":null,"assignedTo":"Coach Jackson","tags":["BasketballMale"],"emails":[{"value":"juanchitosebas25@hotmail.com","type":"home","status":"Valid","isPrimary":1}],"phones":[{"value":"+573222479157","type":"mobile","status":"Valid","isPrimary":1,"normalized":"+573222479157"}],"addresses":[{"type":"","street":"","city":"Promoting Lead Generation: Become a Basketball Playmaker","state":"","code":"","country":""}],"picture":null,"socialData":[],"claimed":true,"firstToClaimOffer":false,"collaborators":[{"id":1,"name":"Coach Jackson","assigned":true,"role":"Broker"}],"teamLeaders":[],"pondMembers":[]},{"id":30975,"created":"2021-02-22T20:52:16Z","updated":"2021-02-22T20:52:16Z","createdVia":"API","lastActivity":"2021-02-22T20:52:18Z","name":"Mauricio Macías","firstName":"Mauricio Macías","lastName":"","stage":"Lead","stageId":2,"source":"Facebook-Lead","sourceUrl":"","delayed":false,"contacted":0,"price":0,"assignedLenderId":null,"assignedLenderName":null,"assignedUserId":1,"assignedPondId":null,"assignedTo":"Coach Jackson","tags":["BasketballMale"],"emails":[{"value":"mauriciomacias0304@gmail.com","type":"home","status":"Valid","isPrimary":1}],"phones":[{"value":"+525510075498","type":"mobile","status":"Valid","isPrimary":1,"normalized":"+525510075498"}],"addresses":[{"type":"","street":"","city":"Promoting Lead Generation: Become a Basketball Playmaker","state":"","code":"","country":""}],"picture":null,"socialData":[],"claimed":true,"firstToClaimOffer":false,"collaborators":[{"id":1,"name":"Coach Jackson","assigned":true,"role":"Broker"}],"teamLeaders":[],"pondMembers":[]},{"id":30974,"created":"2021-02-22T20:46:31Z","updated":"2021-02-22T20:46:31Z","createdVia":"API","lastActivity":"2021-02-22T20:46:32Z","name":"Michał Kowalkowski","firstName":"Michał Kowalkowski","lastName":"","stage":"Lead","stageId":2,"source":"Facebook-Lead","sourceUrl":"","delayed":false,"contacted":0,"price":0,"assignedLenderId":null,"assignedLenderName":null,"assignedUserId":1,"assignedPondId":null,"assignedTo":"Coach Jackson","tags":["BasketballMale"],"emails":[{"value":"m.kowalik1@vp.pl","type":"home","status":"Valid","isPrimary":1}],"phones":[{"value":"+48661041685","type":"mobile","status":"Valid","isPrimary":1,"normalized":"+48661041685"}],"addresses":[{"type":"","street":"","city":"Promoting Lead Generation: Become a Basketball Playmaker","state":"","code":"","country":""}],"picture":null,"socialData":[],"claimed":true,"firstToClaimOffer":false,"collaborators":[{"id":1,"name":"Coach Jackson","assigned":true,"role":"Broker"}],"teamLeaders":[],"pondMembers":[]},{"id":30973,"created":"2021-02-22T20:05:46Z","updated":"2021-02-22T20:05:46Z","createdVia":"API","lastActivity":"2021-02-22T20:05:47Z","name":"Felipe GR","firstName":"Felipe GR","lastName":"","stage":"Lead","stageId":2,"source":"Facebook-Lead","sourceUrl":"","delayed":false,"contacted":0,"price":0,"assignedLenderId":null,"assignedLenderName":null,"assignedUserId":1,"assignedPondId":null,"assignedTo":"Coach Jackson","tags":["BasketballMale"],"emails":[{"value":"ivanfelipegutierrez11@gmail.com","type":"home","status":"Valid","isPrimary":1}],"phones":[{"value":"+573508580517","type":"mobile","status":"Valid","isPrimary":1,"normalized":"+573508580517"}],"addresses":[{"type":"","street":"","city":"Promoting Lead Generation: Become a Basketball Playmaker","state":"","code":"","country":""}],"picture":null,"socialData":[],"claimed":true,"firstToClaimOffer":false,"collaborators":[{"id":1,"name":"Coach Jackson","assigned":true,"role":"Broker"}],"teamLeaders":[],"pondMembers":[]},{"id":30972,"created":"2021-02-22T19:58:39Z","updated":"2021-02-22T19:58:39Z","createdVia":"API","lastActivity":"2021-02-22T19:58:40Z","name":"Camilo Castro","firstName":"Camilo Castro","lastName":"","stage":"Lead","stageId":2,"source":"Facebook-Lead","sourceUrl":"","delayed":false,"contacted":0,"price":0,"assignedLenderId":null,"assignedLenderName":null,"assignedUserId":1,"assignedPondId":null,"assignedTo":"Coach Jackson","tags":["BasketballMale"],"emails":[{"value":"camilcastro2010@hotmail.com","type":"home","status":"Valid","isPrimary":1}],"phones":[{"value":"+573057809801","type":"mobile","status":"Valid","isPrimary":1,"normalized":"+573057809801"}],"addresses":[{"type":"","street":"","city":"Promoting Lead Generation: Become a Basketball Playmaker","state":"","code":"","country":""}],"picture":null,"socialData":[],"claimed":true,"firstToClaimOffer":false,"collaborators":[{"id":1,"name":"Coach Jackson","assigned":true,"role":"Broker"}],"teamLeaders":[],"pondMembers":[]},{"id":30971,"created":"2021-02-22T19:50:24Z","updated":"2021-02-22T19:50:24Z","createdVia":"API","lastActivity":"2021-02-22T19:50:25Z","name":"Nahuel Aranda","firstName":"Nahuel Aranda","lastName":"","stage":"Lead","stageId":2,"source":"Facebook-Lead","sourceUrl":"","delayed":false,"contacted":0,"price":0,"assignedLenderId":null,"assignedLenderName":null,"assignedUserId":1,"assignedPondId":null,"assignedTo":"Coach Jackson","tags":["BasketballMale"],"emails":[{"value":"nahuelaranda10@hotmail.com","type":"home","status":"Valid","isPrimary":1}],"phones":[{"value":"+543875753448","type":"mobile","status":"Valid","isPrimary":1,"normalized":"+543875753448"}],"addresses":[{"type":"","street":"","city":"Promoting Lead Generation: Become a Basketball Playmaker","state":"","code":"","country":""}],"picture":null,"socialData":[],"claimed":true,"firstToClaimOffer":false,"collaborators":[{"id":1,"name":"Coach Jackson","assigned":true,"role":"Broker"}],"teamLeaders":[],"pondMembers":[]}]}